{
  "name": "Administration",
  "base": "PersistedModel",
  "idInjection": true,
  "options": {
    "validateUpsert": true
  },
  "properties": {
    "code": {
      "type": "string",
      "required": true,
      "index": {
        "unique": true
      }
    },
    "libelle": {
      "type": "string",
      "required": true
    }
  },
  "validations": [],
  "relations": {
    "services": {
      "type": "hasMany",
      "model": "Service",
      "foreignKey": ""
    }
  },
  "acls": [],
  "methods": {}
}
