{
  "name": "AppRole",
  "plural": "AppRoles",
  "base": "Role",
  "idInjection": true,
  "options": {
    "validateUpsert": true
  },
  "hidden": [
    "description",
    "created",
    "modified"
  ],
  "properties": {
    "appUsers": {
      "type": "array"
    }
  },
  "validations": [],
  "relations": {},
  "acls": [],
  "methods": {}
}
