{
  "name": "AppRoleMapping",
  "plural": "AppRoleMappings",
  "base": "RoleMapping",
  "idInjection": true,
  "options": {
    "validateUpsert": true
  },
  "properties": {},
  "validations": [],
  "relations": {},
  "acls": [],
  "methods": {}
}
