{
  "name": "banqueGraphe",
  "base": "PersistedModel",
  "idInjection": false,
  "options": {
    "validateUpsert": true
  },
  "properties": {
    "dateOperation": {
      "type": "string",
	"id":"true"
    },
    "sensOperation": {
      "type": "string"
    },
    "avgOperation": {
      "type": "number"
    },
    "sensoperationid": {
      "type": "number"
    },
    "compte": {
      "type": "string"
    }

  },
  "validations": [],
  "relations": {},
  "acls": [],
  "methods": {}
}
