{
  "name": "Enfant",
  "base": "Personne",
  "idInjection": false,
  "options": {
    "validateUpsert": true
  },
  "properties": {
    "rang": {
      "type": "string",
      "id": true,
      "index": {
        "unique": true
      }

    },
    "dateDeces": {
      "type": "date"
    },
    "paye": {
      "type": "string"
    },
    "lit": {
      "type": "string"
    }
  },
  "validations": [],
  "relations": {
    "conjoint": {
      "type": "belongsTo",
      "model": "Conjoint",
      "foreignKey": "lit"
    }
  },
  "acls": [],
  "methods": {}
}
