{
  "name": "EtatAdherent",
  "base": "PersistedModel",
  "idInjection": true,
  "options": {
    "validateUpsert": true
  },
  "properties": {
    "dateEtat": {
      "type": "date"
    }
  },
  "validations": [],
  "relations": {
    "typeEtat": {
      "type": "belongsTo",
      "model": "TypeEtatAdherent",
      "foreignKey": ""
    }
  },
  "acls": [],
  "mixins": {
     "Rediscache": {}      
  },
  "methods": {}
}
