{
  "name": "Mutuelle",
  "base": "PersistedModel",
  "idInjection": true,
  "options": {
    "validateUpsert": true
  },
  "properties": {
    "dateDebut": {
      "type": "date"
    },
    "dateFin": {
      "type": "date"
    },
    "taux": {
      "type": "number"
    }
  },
  "validations": [],
  "relations": {
    "typeMutuelle": {
      "type": "belongsTo",
      "model": "TypeMutuelle",
      "foreignKey": ""
    }
  },
  "acls": [],
  "methods": {}
}
