{
  "name": "ReponseReclamation",
  "base": "PersistedModel",
  "idInjection": true,
  "options": {
    "validateUpsert": true
  },
  "properties": {
    "reponse": {
      "type": "string"
    },
    "date": {
      "type": "date"
    }
  },
  "validations": [],
  "relations": {
    "typeEtatReclamation": {
      "type": "belongsTo",
      "model": "TypeEtatReclamation",
      "foreignKey": ""
    }
  },
  "acls": [],
  "methods": {}
}
