{
  "name": "SituationAdministrative",
  "base": "Personne",
  "idInjection": false,
  "options": {
    "validateUpsert": true
  },
  "properties": {
    "dateDebut": {
      "type": "date",
      "required": true
    },
    "dateFin": {
      "type": "date",
      "required": true
    },
    "dateEntree": {
      "type": "date",
      "required": true
    },
    "echelle": {
      "type": "string",
      "required": true
    },
    "departement": {
      "type": "string"
    },
    "statut": {
      "type": "string",
      "required": true
    },
    "position": {
      "type": "string"
    },
    "echelon": {
      "type": "string"
    },
    "indice": {
      "type": "string"
    },
    "zone": {
      "type": "string"
    }
  },
  "validations": [],
  "relations": {
    "prelevements": {
      "type": "hasMany",
      "model": "Prelevement",
      "foreignKey": "situationAdministrativeId"
    },
    "validationServices": {
      "type": "hasMany",
      "model": "ValidationService",
      "foreignKey": "situationAdministrativeId"
    },
    "igrs": {
      "type": "hasMany",
      "model": "Igr",
      "foreignKey": ""
    },
    "ville": {
      "type": "belongsTo",
      "model": "Ville",
      "foreignKey": ""
    },
    "pensions": {
      "type": "hasMany",
      "model": "Pension",
      "foreignKey": ""
    },
    "mutuelles": {
      "type": "hasMany",
      "model": "Mutuelle",
      "foreignKey": ""
    },
    "reglements": {
      "type": "hasMany",
      "model": "Reglement",
      "foreignKey": ""
    },
    "situationPecuniere": {
      "type": "hasOne",
      "model": "SituationPecuniere",
      "foreignKey": ""
    },
    "conjoints": {
      "type": "hasMany",
      "model": "Conjoint",
      "foreignKey": ""
    },
    "enfants": {
      "type": "hasMany",
      "model": "Enfant",
      "foreignKey": ""
    },
    "allocationsfamiliales": {
      "type": "hasMany",
      "model": "AllocationFamilliale",
      "foreignKey": ""
    },
    "fonction": {
      "type": "belongsTo",
      "model": "Fonction",
      "foreignKey": ""
    },
    "grade": {
      "type": "belongsTo",
      "model": "Grade",
      "foreignKey": ""
    },
    "administration": {
      "type": "belongsTo",
      "model": "Administration",
      "foreignKey": ""
    },
    "service": {
      "type": "belongsTo",
      "model": "Service",
      "foreignKey": ""
    }
  },
  "acls": [],
  "methods": {}
}
