{
  "name": "SituationPecuniere",
  "base": "PersistedModel",
  "idInjection": true,
  "options": {
    "validateUpsert": true
  },
  "properties": {
    "imputation": {
      "type": "string"
    },
    "totalBrutAnnuel": {
      "type": "number"
    },
    "netAnnuel": {
      "type": "number"
    },
    "netMensuel": {
      "type": "number"
    },
    "totalRetenuesAnnuelles": {
      "type": "number"
    },
    "brutImposable": {
      "type": "number"
    }
  },
  "validations": [],
  "relations": {
    "situationPecuniereDetails": {
      "type": "hasMany",
      "model": "SituationPecuniereDetail",
      "foreignKey": ""
    }
  },
  "acls": [],
  "methods": {}
}
