{
  "name": "Solde",
  "base": "PersistedModel",
  "idInjection": true,
  "options": {
    "validateUpsert": true
  },
  "properties": {
    "valeur": {
      "type": "number",
      "required": true
    },
    "date": {
      "type": "date",
      "required": true
    },
    "montantBlocage": {
      "type": "number",
      "required": true
    },
    "soldeMinimum": {
      "type": "number",
      "required": true
    },
    "disponibleNet": {
      "type": "number",
      "required": true
    }
  },
  "validations": [],
  "relations": {},
  "acls": [],
  "methods": {}
}
