{
  "name": "SystemDomain",
  "plural": "Domains",
  "description": "System: Manage Domains and related content",
  "base": "SystemBaseModel",
  "idInjection": true,
  "options": {
    "validateUpsert": true
  },
  "properties": {
    "id": {
      "type": "String",
      "id": true,
      "required": true
    },
    "name": {
      "type": "String",
      "required": true
    },
    "email": {
      "type": "String",
      "required": true
    },
    "pushSettings": {
      "type": "Object"
    }

  },
  "validations": [],
  "relations": {},
  "acls": [],
  "methods": {
    "prototype.importFileByUrl": {
      "accepts": [
        {
          "arg": "url",
          "type": "String",
          "required": true
        },
        {
          "arg": "fileName",
          "type": "String",
          "required": false
        }
      ],
      "returns": {
        "arg": "result",
        "type": "Object",
        "root": true
      },
      "description": "Import a file by URL",
      "http": {
        "path": "/importFileByUrl",
        "verb": "post"
      }
    }
  }
}
