{
  "name": "SystemSetting",
  "plural": "Settings",
  "description": "System: Manage Settings",
  "base": "SystemBaseModel",
  "idInjection": true,
  "options": {
    "validateUpsert": true
  },
  "properties": {
    "key": {
      "type": "string",
      "id": true,
      "required": true
    },
    "system": {
      "type": "boolean",
      "default": false
    },
    "type": {
      "type": "string",
      "required": true,
      "default": "string"
    },
    "description": {
      "type": "string"
    }
  },
  "validations": [],
  "relations": {},
  "acls": [],
  "methods": {}
}
