{
  "name": "TypeEtatTiers",
  "base": "PersistedModel",
  "idInjection": true,
  "options": {
    "validateUpsert": true,
    "oracle": {
      "table": "TYPE_ETAT_TIERS"
    }
  },
  "properties": {
    "id": {
      "type": "string",
      "required": true
    },
    "code": {
      "type": "string",
      "required": true
    },
    "libelle": {
      "type": "string",
      "required": true
    }
  },
  "validations": [],
  "relations": {},
  "acls": [],
  "mixins": {
     "Rediscache": {}
  },
  "methods": {}
}
