{
  "name": "TypeReclamant",
  "base": "PersistedModel",
  "idInjection": true,
  "options": {
    "validateUpsert": true
  },
  "properties": {
    "code": {
      "type": "string",
      "required": true,
      "index": {
        "unique": true
      }
    },
    "libelle": {
      "type": "string",
      "required": true
    }
  },
  "validations": [],
  "relations": {
    "natureReclamations": {
      "type": "hasMany",
      "model": "NatureReclamation",
      "foreignKey": ""
    },
    "typeActeur": {
      "type": "belongsTo",
      "model": "TypeActeur",
      "foreignKey": ""
    },
   "postes": {
      "type": "hasMany",
      "model": "Poste",
      "foreignKey": "",
      "through": "PosteTypeReclamant"

   }
  },
  "acls": [],
  "mixins": {
     "Rediscache": {}
  },
  "methods": {}
}
