{
  "name": "TypePoste",
  "plural": "TypesPoste",
  "base": "PersistedModel",
  "idInjection": true,
  "options": {
    "validateUpsert": true
  },
  "mixins": {
       "ModelCache": {
         "ttl": 86400,
         "reloadAfterReturn": true,
         "type": "redis",
          "configuration": {
           "host": "127.0.0.1",
           "password": "redis",
           "port": "6379",
           "dbNumber": "0"
         },
         "methods": [ "directionsCentrales" , "directionsRegionales" ]
       }
   },
  "properties": {
    "code": {
      "type": "string",
      "required": true,
      "index": {
        "unique": true
      }
    },
    "libelle": {
      "type": "string"
    }
  },
  "validations": [],
  "relations": {
    "postes": {
      "type": "hasMany",
      "model": "Poste",
      "foreignKey": ""
    }
  },
  "acls": [],
  "methods": {}
}
