{
  "StarterItem": [
    {
      "id": "1",
      "name": "Item 1",
      "description": "This is Item 1"
    },
    {
      "id": "2",
      "name": "Item 2",
      "description": "This is Item 2"
    },
    {
      "id": "3",
      "name": "Item 3",
      "description": "This is Item 3"
    }
  ]
}
