{
  "restApiRoot": "/api",
  "host": "0.0.0.0",
  "port": 5000,
  "remoting": {
    "context": false,
    "rest": {
      "handleErrors": false,
      "normalizeHttpPath": false,
      "xml": false
    },
    "json": {
      "strict": false,
      "limit": "100kb"
    },
    "urlencoded": {
      "extended": true,
      "limit": "100kb"
    },
    "cors": false
  },
  "redis": {
      "host": "localhost",
      "password": "redis"
  },
   "logger" : {
        "type": "rotating-file",
        "path": "server/logger/log.lb",
        "period": "1d",   
        "count": 30        
  }


}
