{
  "MongoDB": {
    "host": "mongodb.tgr.gov.ma",
    "port": 27017,
    "database": "tgr",
    "password": "mongouser",
    "name": "MongoDB",
    "user": "mongouser",
    "connector": "mongodb"
  },
  "RedisDB": {
    "name": "RedisDB",
    "connector": "redis"
  },
  "LDAP-APP-ROLE": {
    "host": "ldap://ldap.tgr.gov.ma",
    "port": 389,
    "password": "1232123",
    "name": "LDAP-APP-ROLE",
    "connector": "ldap",
    "searchBase": "ou=groups,dc=TGR,dc=MA",
    "searchBaseFilter": "(cn=*)",
    "user": "cn=root",
    "modelMapping": {
      "AppRole": {
        "objectclass": [
          "groupOfUniqueNames",
          "top"
        ],
        "cn": [
          "name"
        ],
        "mapping": {
          "id": "cn",
          "name": "cn",
          "description": "",
          "created": "",
          "modified": "",
          "appUsers": "uniquemember=uid"
        },
        "reverseMapping": {
          "cn": "name",
          "uniquemember=uid": "appUsers"
        }
      }
    },
    "debug": true
  },
  "LDAP-APP-GROUP": {
    "host": "ldap://ldap.tgr.gov.ma",
    "port": 389,
    "password": "1232123",
    "name": "LDAP-APP-GROUP",
    "connector": "ldap",
    "searchBase": "ou=groups,dc=TGR,dc=MA",
    "searchBaseFilter": "(cn=*)",
    "user": "cn=root",
    "modelMapping": {
      "AppGroup": {
        "objectclass": [
          "groupOfUniqueNames",
          "top"
        ],
        "cn": [
          "name"
        ],
        "mapping": {
          "id": "cn",
          "name": "cn",
          "description": "",
          "created": "",
          "modified": "",
          "appUsers": "uniquemember"
        },
        "reverseMapping": {
          "cn": "name",
          "uniquemember": "appUsers"
        }
      }
    },
    "debug": true
  },
  "LDAP-APP-USER": {
    "host": "ldap://ldap.tgr.gov.ma",
    "port": 389,
    "password": "1232123",
    "name": "LDAP-APP-USER",
    "connector": "ldap",
    "searchBase": "ou=users,dc=TGR,dc=MA",
    "searchBaseFilter": "(uid=*)",
    "searchAttributes": [
      "dn",
      "cn",
      "givenName",
      "name",
      "uniquemember"
    ],
    "user": "cn=root",
    "modelMapping": {
      "AppUser": {
        "objectclass": [
          "top",
          "wmmUserHook",
          "tgrPortalPerson",
          "tgrAgent",
          "tgrAdherent"
        ],
        "cn": [
          "username"
        ],
        "mapping": {
          "id": "uid",
          "email": "mail",
          "username": "uid",
          "password": "userPassword;binary",
          "firstName": "givenname",
          "lastName": "sn",
          "completeName": "cn",
          "mobile": "mobile",
          "codeadministration": "codeadministration",
          "codecontribuable": "codecontribuable",
          "jpegphoto": "jpegphoto;binary",
          "jpeguri": "jpeguri",
          "userOU": "userOU",
          "title": "title",
          "codeservice": "codeservice",
          "cin": "cin",
          "norib": "norib",
          "userRAT": "userRAT",
          "sexe": "sexe",
          "sn": "sn",
          "commentaires": "commentaires",
          "titlecode": "titlecode",
          "titlehierarchy": "titlehierarchy",
          "employeenumber": "employeenumber",
          "uidagtsaisie": "uidagtsaisie",
          "fixe": "telephonenumber",
          "preferredlanguage": "preferredlanguage",
          "dn": "dn"
        },
        "reverseMapping": {
          "uid": "username",
          "mail": "email",
          "userPassword": "password",
          "givenname": "firstName",
          "sn": "lastName",
          "cn": "completeName",
          "mobile": "mobile",
          "codeadministration": "codeadministration",
          "codecontribuable": "codecontribuable",
          "jpegphoto": "jpegphoto",
          "jpeguri": "jpeguri",
          "userOU": "userOU",
          "title": "title",
          "codeservice": "codeservice",
          "cin": "cin",
          "norib": "norib",
          "userRAT": "userRAT",
          "sexe": "sexe",
          "commentaires": "commentaires",
          "titlecode": "titlecode",
          "titlehierarchy": "titlehierarchy",
          "employeenumber": "employeenumber",
          "uidagtsaisie": "uidagtsaisie",
          "telephonenumber": "fixe",
          "preferredlanguage": "preferredlanguage",
          "dn": "dn"
        }
      }
    },
    "debug": true
  },
  "PostgreSQL": {
    "host": "postgres.tgr.gov.ma",
    "port": 54000,
    "database": "annuaire6",
    "password": "postgres",
    "name": "PostgreSQL",
    "user": "postgres",
    "connector": "postgresql"
  },
  "lilmoqawala_prod": {
    "host": "gidfournisseur.tgr.gov.ma",
    "port": 1521,
    "database": "proddm",
    "password": "lilmoqawalaProd2013!?",
    "name": "lilmoqawala_prod",
    "tns": "",
    "user": "lilmoqawala_prod",
    "connector": "oracle"
  },
  "Referentiel": {
    "host": "postgres.tgr.gov.ma",
    "port": 54000,
    "database": "Referentiel_Mobile",
    "password": "postgres",
    "name": "Referentiel",
    "user": "postgres",
    "connector": "postgresql"
  },
  "Banque": {
    "host": "postgres.tgr.gov.ma",
    "port": 54000,
    "database": "Banque_Mobile",
    "password": "postgres",
    "name": "Banque",
    "user": "postgres",
    "connector": "postgresql"
  },
  "Adhesion": {
    "host": "postgres.tgr.gov.ma",
    "port": 54000,
    "database": "Adhesion_Mobile",
    "password": "postgres",
    "name": "Adhesion",
    "user": "postgres",
    "connector": "postgresql"
  },
  "Fonctionnaire": {
    "host": "postgres.tgr.gov.ma",
    "port": 54000,
    "database": "Fonctionnaire_Mobile",
    "password": "postgres",
    "name": "Fonctionnaire",
    "user": "postgres",
    "connector": "postgresql"
  },
  "Reclamation": {
    "host": "postgres.tgr.gov.ma",
    "port": 54000,
    "database": "Reclamation_Mobile",
    "password": "postgres",
    "name": "Reclamation",
    "user": "postgres",
    "connector": "postgresql"
  },
  "Contribuable": {
    "name": "Contribuable",
    "baseURL": "",
    "crud": false,
    "connector": "rest",
    "operations": [
      {
        "functions": {
          "getURL": [
            "code",
            "cc",
            "re",
            "mon",
            "email",
            "total",
            "id"
          ]
        },
        "template": {
          "method": "GET",
          "url": "http://www.tgr.gov.ma/preprod/MiddleWS/services/pmc/getURL/{code:string}/{cc:string}/{re:string}/{mon:string}/{email:string}/{total:string}/{id:string}"
        }
      },
      {
        "functions": {
          "getIdentifiant": [
            "ref",
            "montant"
          ]
        },
        "template": {
          "method": "GET",
          "url": "http://www.tgr.gov.ma/preprod/MiddleWS/services/pmc/getIdentifiant/{ref:string}/{montant:string}"
        }
      },
      {
        "functions": {
          "getResultPEL": [
            "ref",
            "montant"
          ]
        },
        "template": {
          "method": "GET",
          "url": "http://www.tgr.gov.ma/preprod/MiddleWS/services/pmc/getResultPEL/{ref:string}/{montant:string}"
        }
      },
      {
        "functions": {
          "generateKey": [
            "codebarre"
          ]
        },
        "template": {
          "method": "GET",
          "url": "http://www.tgr.gov.ma/preprod/MiddleWS/services/pmc/generateKey/{codebarre:string}"
        }
      }
    ]
  },
  "SituationFiscale": {
    "name": "SituationFiscale",
    "baseURL": "",
    "crud": false,
    "connector": "rest",
    "operations": [
      {
        "functions": {
          "getResultNS": [
            "cod"
          ]
        },
        "template": {
          "method": "GET",
          "url": "http://www.tgr.gov.ma/preprod/MiddleWS/services/pmc/getResultNS/{cod:string}"
        }
      },
      {
        "functions": {
          "getResultS": [
            "cod"
          ]
        },
        "template": {
          "method": "GET",
          "url": "http://www.tgr.gov.ma/preprod/MiddleWS/services/pmc/getResultS/{cod:string}"
        }
      }
    ]
  },
  "Storage": {
    "name": "Storage",
    "connector": "loopback-component-storage",
    "provider": "filesystem",
    "root": "./server/storage"
  },
  "mailingDataSource": {
    "name": "mailingDataSource",
    "connector": "mail",
    "transports": [
      {
        "type": "smtp",
        "host": "smtp.tgr.gov.ma",
        "secure": false,
        "port": 25,
        "tls": {
          "rejectUnauthorized": false
        },
        "auth": {
          "user": "tgrnet/portail",
          "pass": "portail1256"
        }
      }
    ]
  }
}
