{
  "initial:before": {
    "loopback#favicon": {},
    "loopback#token": {}
  },
  "initial": {
    "./middleware/tracker": {},
    "compression": {},
    "cors": {
      "params": {
        "origin": true,
        "credentials": true,
        "maxAge": 86400
      }
    },
    "helmet#xssFilter": {},
    "helmet#frameguard": {
      "params": [
        "deny"
      ]
    },
    "helmet#hsts": {
      "params": {
        "maxAge": 0,
        "includeSubdomains": true
      }
    },
    "helmet#hidePoweredBy": {},
    "helmet#ieNoOpen": {},
    "helmet#noSniff": {},
    "helmet#noCache": {
      "enabled": false
    }
  },
  "session": {},
  "auth": {},
  "parse": {},
  "routes": {
    "loopback#rest": {
      "paths": [
        "${restApiRoot}",
        "${reportingApiRoot}"
      ]
    }
  },
  "files": {},
  "loopback-context#per-request": {},
  "final": {
    "loopback#urlNotFound": {}
  },
  
  "final:after": {
    "./middleware/error-handler": {},
    "strong-error-handler": {
      "params": {
        "debug": true,
        "log": true,
        "safeFields": [
          "errorCode"
        ]
      }
    }
  }

}
